EESchema Schematic File Version 4
LIBS:fugu-cache
EELAYER 26 0
EELAYER END
$Descr A4 11693 8268
encoding utf-8
Sheet 1 1
Title ""
Date ""
Rev ""
Comp ""
Comment1 ""
Comment2 ""
Comment3 ""
Comment4 ""
$EndDescr
$Comp
L Device:C C4
U 1 1 5B3BB028
P 8650 2500
F 0 "C4" H 8700 2600 50  0000 L CNN
F 1 "100nF" H 8700 2400 50  0000 L CNN
F 2 "Capacitor_SMD:C_0603_1608Metric_Pad1.05x0.95mm_HandSolder" H 8688 2350 50  0001 C CNN
F 3 "~" H 8650 2500 50  0001 C CNN
	1    8650 2500
	1    0    0    -1  
$EndComp
$Comp
L Device:C C7
U 1 1 5B3BC6A2
P 9100 2500
F 0 "C7" H 9150 2600 50  0000 L CNN
F 1 "100nF" H 9150 2400 50  0000 L CNN
F 2 "Capacitor_SMD:C_0603_1608Metric_Pad1.05x0.95mm_HandSolder" H 9138 2350 50  0001 C CNN
F 3 "~" H 9100 2500 50  0001 C CNN
	1    9100 2500
	1    0    0    -1  
$EndComp
$Comp
L Device:C C8
U 1 1 5B3BC6CA
P 9550 2500
F 0 "C8" H 9600 2600 50  0000 L CNN
F 1 "100nF" H 9600 2400 50  0000 L CNN
F 2 "Capacitor_SMD:C_0603_1608Metric_Pad1.05x0.95mm_HandSolder" H 9588 2350 50  0001 C CNN
F 3 "~" H 9550 2500 50  0001 C CNN
	1    9550 2500
	1    0    0    -1  
$EndComp
$Comp
L Device:C C12
U 1 1 5B3BC6F0
P 10000 2500
F 0 "C12" H 10050 2600 50  0000 L CNN
F 1 "100nF" H 10050 2400 50  0000 L CNN
F 2 "Capacitor_SMD:C_0603_1608Metric_Pad1.05x0.95mm_HandSolder" H 10038 2350 50  0001 C CNN
F 3 "~" H 10000 2500 50  0001 C CNN
	1    10000 2500
	1    0    0    -1  
$EndComp
$Comp
L Device:C C14
U 1 1 5B3BC720
P 10450 2500
F 0 "C14" H 10500 2600 50  0000 L CNN
F 1 "100nF" H 10500 2400 50  0000 L CNN
F 2 "Capacitor_SMD:C_0603_1608Metric_Pad1.05x0.95mm_HandSolder" H 10488 2350 50  0001 C CNN
F 3 "~" H 10450 2500 50  0001 C CNN
	1    10450 2500
	1    0    0    -1  
$EndComp
Wire Wire Line
	2000 1050 2000 950 
Wire Wire Line
	10450 2250 10450 2350
Wire Wire Line
	8650 2350 8650 2250
Wire Wire Line
	8650 2250 9100 2250
Wire Wire Line
	9100 2350 9100 2250
Connection ~ 9100 2250
Wire Wire Line
	9100 2250 9550 2250
Wire Wire Line
	9550 2350 9550 2250
Connection ~ 9550 2250
Wire Wire Line
	9550 2250 10000 2250
Wire Wire Line
	10000 2350 10000 2250
Connection ~ 10000 2250
Wire Wire Line
	10000 2250 10450 2250
Wire Wire Line
	2100 1050 2100 950 
Wire Wire Line
	2100 950  2000 950 
Wire Wire Line
	2200 1050 2200 950 
Wire Wire Line
	2200 950  2100 950 
Connection ~ 2100 950 
$Comp
L Device:C C17
U 1 1 5B3BCEF3
P 10900 2500
F 0 "C17" H 10950 2600 50  0000 L CNN
F 1 "4.7uF" H 10950 2400 50  0000 L CNN
F 2 "Capacitor_SMD:C_0603_1608Metric_Pad1.05x0.95mm_HandSolder" H 10938 2350 50  0001 C CNN
F 3 "~" H 10900 2500 50  0001 C CNN
	1    10900 2500
	1    0    0    -1  
$EndComp
Wire Wire Line
	10900 2350 10900 2250
Wire Wire Line
	10900 2250 10450 2250
Connection ~ 10450 2250
Wire Wire Line
	8650 2650 8650 2750
Wire Wire Line
	8650 2750 9100 2750
Wire Wire Line
	10900 2650 10900 2750
Wire Wire Line
	10450 2650 10450 2750
Connection ~ 10450 2750
Wire Wire Line
	10450 2750 10900 2750
Wire Wire Line
	10000 2750 10000 2650
Connection ~ 10000 2750
Wire Wire Line
	10000 2750 10450 2750
Wire Wire Line
	9550 2650 9550 2750
Connection ~ 9550 2750
Wire Wire Line
	9550 2750 10000 2750
Wire Wire Line
	9100 2650 9100 2750
Connection ~ 9100 2750
Wire Wire Line
	9100 2750 9550 2750
Wire Wire Line
	1900 4050 1900 4150
Wire Wire Line
	2000 4050 2000 4150
Wire Wire Line
	2000 4150 1900 4150
Wire Wire Line
	2100 4050 2100 4150
Wire Wire Line
	2100 4150 2000 4150
Connection ~ 2000 4150
$Comp
L Device:C C13
U 1 1 5B3C1BE3
P 10200 3850
F 0 "C13" H 10250 3950 50  0000 L CNN
F 1 "10nF" H 10250 3750 50  0000 L CNN
F 2 "Capacitor_SMD:C_0603_1608Metric_Pad1.05x0.95mm_HandSolder" H 10238 3700 50  0001 C CNN
F 3 "~" H 10200 3850 50  0001 C CNN
	1    10200 3850
	1    0    0    -1  
$EndComp
$Comp
L Device:C C15
U 1 1 5B3C1C4F
P 10650 3850
F 0 "C15" H 10700 3950 50  0000 L CNN
F 1 "1uF" H 10700 3750 50  0000 L CNN
F 2 "Capacitor_SMD:C_0603_1608Metric_Pad1.05x0.95mm_HandSolder" H 10688 3700 50  0001 C CNN
F 3 "~" H 10650 3850 50  0001 C CNN
	1    10650 3850
	1    0    0    -1  
$EndComp
Wire Wire Line
	10200 3600 10200 3700
Wire Wire Line
	10650 3600 10650 3700
Wire Wire Line
	10200 4100 10200 4000
Wire Wire Line
	10650 4000 10650 4100
Connection ~ 10650 4100
Wire Wire Line
	10650 4100 10200 4100
$Comp
L Device:Crystal_GND2 Y3
U 1 1 5B3C72BA
P 10500 1350
F 0 "Y3" H 10550 1600 50  0000 R CNN
F 1 "8Mhz" H 10600 1500 50  0000 R CNN
F 2 "FuguResonators:Murata_CSTCE8M0V53-R0-3Pin_3.2x1.1mm_HandSoldering" H 10500 1350 50  0001 C CNN
F 3 "~" H 10500 1350 50  0001 C CNN
	1    10500 1350
	1    0    0    -1  
$EndComp
$Comp
L Device:C C6
U 1 1 5B3DE985
P 9050 1550
F 0 "C6" H 8850 1550 50  0000 L CNN
F 1 "8pF" H 8800 1450 50  0000 L CNN
F 2 "Capacitor_SMD:C_0603_1608Metric_Pad1.05x0.95mm_HandSolder" H 9088 1400 50  0001 C CNN
F 3 "~" H 9050 1550 50  0001 C CNN
	1    9050 1550
	1    0    0    -1  
$EndComp
Wire Wire Line
	2300 950  2300 1050
Wire Wire Line
	10200 3600 10650 3600
$Comp
L power:GND #PWR036
U 1 1 5B422F84
P 10650 4100
F 0 "#PWR036" H 10650 3850 50  0001 C CNN
F 1 "GND" H 10655 3927 50  0000 C CNN
F 2 "" H 10650 4100 50  0001 C CNN
F 3 "" H 10650 4100 50  0001 C CNN
	1    10650 4100
	1    0    0    -1  
$EndComp
$Comp
L power:GND #PWR041
U 1 1 5B42352B
P 10900 2750
F 0 "#PWR041" H 10900 2500 50  0001 C CNN
F 1 "GND" H 10905 2577 50  0000 C CNN
F 2 "" H 10900 2750 50  0001 C CNN
F 3 "" H 10900 2750 50  0001 C CNN
	1    10900 2750
	1    0    0    -1  
$EndComp
Connection ~ 10900 2750
$Comp
L power:+3.3V #PWR040
U 1 1 5B423587
P 10900 2250
F 0 "#PWR040" H 10900 2100 50  0001 C CNN
F 1 "+3.3V" H 10915 2423 50  0000 C CNN
F 2 "" H 10900 2250 50  0001 C CNN
F 3 "" H 10900 2250 50  0001 C CNN
	1    10900 2250
	1    0    0    -1  
$EndComp
Connection ~ 10900 2250
Text Notes 8800 2100 0    50   ~ 0
Vdd/Vss MCU bypass \n(4.7 uF as close as possible to VDD3 - pin 48)
Text Notes 9450 650  0    50   ~ 0
Oscillator MCU block\n
Text Notes 10100 3150 0    50   ~ 0
VddA/VssA MCU bypass 
$Comp
L power:+3.3V #PWR04
U 1 1 5B42FA73
P 2100 950
F 0 "#PWR04" H 2100 800 50  0001 C CNN
F 1 "+3.3V" H 2115 1123 50  0000 C CNN
F 2 "" H 2100 950 50  0001 C CNN
F 3 "" H 2100 950 50  0001 C CNN
	1    2100 950 
	1    0    0    -1  
$EndComp
$Comp
L power:GND #PWR03
U 1 1 5B42FC78
P 2000 4150
F 0 "#PWR03" H 2000 3900 50  0001 C CNN
F 1 "GND" H 2005 3977 50  0000 C CNN
F 2 "" H 2000 4150 50  0001 C CNN
F 3 "" H 2000 4150 50  0001 C CNN
	1    2000 4150
	1    0    0    -1  
$EndComp
$Comp
L Device:C C9
U 1 1 5B3DE98C
P 9650 1550
F 0 "C9" H 9750 1550 50  0000 L CNN
F 1 "8pF" H 9700 1450 50  0000 L CNN
F 2 "Capacitor_SMD:C_0603_1608Metric_Pad1.05x0.95mm_HandSolder" H 9688 1400 50  0001 C CNN
F 3 "~" H 9650 1550 50  0001 C CNN
	1    9650 1550
	1    0    0    -1  
$EndComp
Wire Wire Line
	9200 1350 9050 1350
Wire Wire Line
	9050 1350 9050 1400
Wire Wire Line
	9500 1350 9650 1350
Wire Wire Line
	9650 1350 9650 1400
Text Label 9650 900  3    50   ~ 0
OSC32_IN
Text Label 9050 900  3    50   ~ 0
OSC32_OUT
Wire Wire Line
	9650 1350 9650 900 
Connection ~ 9650 1350
Wire Wire Line
	9050 1350 9050 900 
Connection ~ 9050 1350
Wire Wire Line
	10500 1550 10500 1600
$Comp
L power:GND #PWR034
U 1 1 5B49EC5B
P 10500 1600
F 0 "#PWR034" H 10500 1350 50  0001 C CNN
F 1 "GND" H 10505 1427 50  0000 C CNN
F 2 "" H 10500 1600 50  0001 C CNN
F 3 "" H 10500 1600 50  0001 C CNN
	1    10500 1600
	1    0    0    -1  
$EndComp
Wire Wire Line
	10200 1350 10350 1350
Wire Wire Line
	10650 1350 10800 1350
Text Label 10200 900  3    50   ~ 0
OSC_OUT
Text Label 10800 900  3    50   ~ 0
OSC_IN
$Comp
L power:+3.3V #PWR035
U 1 1 5B4B60CD
P 10650 3600
F 0 "#PWR035" H 10650 3450 50  0001 C CNN
F 1 "+3.3V" H 10665 3773 50  0000 C CNN
F 2 "" H 10650 3600 50  0001 C CNN
F 3 "" H 10650 3600 50  0001 C CNN
	1    10650 3600
	1    0    0    -1  
$EndComp
Connection ~ 10650 3600
Text Label 950  2150 0    50   ~ 0
OSC32_OUT
Text Label 950  2050 0    50   ~ 0
OSC32_IN
Text Label 950  1750 0    50   ~ 0
OSC_OUT
Text Label 950  1650 0    50   ~ 0
OSC_IN
Wire Wire Line
	950  1750 1400 1750
Wire Wire Line
	950  2050 1400 2050
Wire Wire Line
	950  1650 1400 1650
Wire Wire Line
	1400 2150 950  2150
$Comp
L Fugu:CH340G U4
U 1 1 5B4CA892
P 7750 1500
F 0 "U4" H 7750 2137 60  0000 C CNN
F 1 "CH340G" H 7750 2031 60  0000 C CNN
F 2 "Package_SO:SOIC-16_3.9x9.9mm_P1.27mm" H 7950 850 60  0001 C CNN
F 3 "" H 7950 850 60  0000 C CNN
	1    7750 1500
	1    0    0    -1  
$EndComp
$Comp
L power:GND #PWR029
U 1 1 5B4D5D82
P 9300 4200
F 0 "#PWR029" H 9300 3950 50  0001 C CNN
F 1 "GND" H 9300 4050 50  0000 C CNN
F 2 "" H 9300 4200 50  0000 C CNN
F 3 "" H 9300 4200 50  0000 C CNN
	1    9300 4200
	1    0    0    -1  
$EndComp
Wire Wire Line
	9750 4100 9750 4000
Wire Wire Line
	9300 4200 9300 4100
Connection ~ 9300 4100
$Comp
L Device:C C5
U 1 1 5B4D5D97
P 8850 3850
F 0 "C5" H 8875 3950 50  0000 L CNN
F 1 "1uF" H 8875 3750 50  0000 L CNN
F 2 "Capacitor_SMD:C_0603_1608Metric_Pad1.05x0.95mm_HandSolder" H 8888 3700 50  0001 C CNN
F 3 "" H 8850 3850 50  0000 C CNN
	1    8850 3850
	1    0    0    -1  
$EndComp
Wire Wire Line
	8850 3700 8850 3600
Wire Wire Line
	8850 4000 8850 4100
$Comp
L Device:C C10
U 1 1 5B4D5DA2
P 9750 3850
F 0 "C10" H 9775 3950 50  0000 L CNN
F 1 "1uF" H 9775 3750 50  0000 L CNN
F 2 "Capacitor_SMD:C_0603_1608Metric_Pad1.05x0.95mm_HandSolder" H 9788 3700 50  0001 C CNN
F 3 "" H 9750 3850 50  0000 C CNN
	1    9750 3850
	1    0    0    -1  
$EndComp
Wire Wire Line
	9700 3600 9750 3600
$Comp
L Fugu:XC6206P332MR U5
U 1 1 5B4D5DAB
P 9300 3650
F 0 "U5" H 9300 3950 50  0000 C CNN
F 1 "XC6206P332MR" H 9300 3850 50  0000 C CNN
F 2 "Package_TO_SOT_SMD:SOT-23" H 9300 3750 50  0001 C CIN
F 3 "" H 9300 3650 50  0000 C CNN
	1    9300 3650
	1    0    0    -1  
$EndComp
Wire Wire Line
	9750 3600 9750 3700
Wire Wire Line
	9300 4100 9300 3900
Wire Wire Line
	9300 4100 9750 4100
Wire Wire Line
	8850 3600 8900 3600
Wire Wire Line
	8850 4100 9300 4100
$Comp
L power:GND #PWR018
U 1 1 5B4D9ABB
P 6750 2350
F 0 "#PWR018" H 6750 2100 50  0001 C CNN
F 1 "GND" H 6750 2200 50  0000 C CNN
F 2 "" H 6750 2350 50  0000 C CNN
F 3 "" H 6750 2350 50  0000 C CNN
	1    6750 2350
	1    0    0    -1  
$EndComp
NoConn ~ 8250 1250
NoConn ~ 8250 1350
NoConn ~ 8250 1550
NoConn ~ 8250 1650
NoConn ~ 8250 1750
Text Label 7050 1350 0    60   ~ 0
RXD
Text Label 7050 1250 0    60   ~ 0
TXD
$Comp
L Device:Crystal_GND2 Y1
U 1 1 5B4D9AE7
P 6750 2000
F 0 "Y1" H 6750 2150 50  0000 C CNN
F 1 "12Mhz" H 6650 1750 50  0000 L CNN
F 2 "FuguResonators:Murata_CSTCE12M0G52-R0-3Pin_3.2x1.1mm_HandSoldering" H 6750 2000 50  0001 C CNN
F 3 "" H 6750 2000 50  0000 C CNN
	1    6750 2000
	1    0    0    -1  
$EndComp
$Comp
L Fugu:USB_5PIN_SHELL P1
U 1 1 5B4D9AEE
P 5600 1600
F 0 "P1" H 5450 1300 50  0000 C CNN
F 1 "USB Micro" H 5400 1850 50  0000 C CNN
F 2 "FuguUSB:USB-MICRO-5pin_PTHMOUNT" V 5550 1500 50  0001 C CNN
F 3 "" V 5550 1500 50  0000 C CNN
	1    5600 1600
	1    0    0    1   
$EndComp
Wire Wire Line
	6550 1750 6550 2000
Wire Wire Line
	6950 1850 6950 2000
Wire Wire Line
	7250 1850 6950 1850
Wire Wire Line
	6550 1750 7250 1750
Wire Wire Line
	7250 1350 7050 1350
Wire Wire Line
	7250 1250 7050 1250
$Comp
L Device:C C3
U 1 1 5B4D9B0A
P 8450 1300
F 0 "C3" H 8600 1300 50  0000 L CNN
F 1 "100nF" H 8600 1200 50  0000 L CNN
F 2 "Capacitor_SMD:C_0603_1608Metric_Pad1.05x0.95mm_HandSolder" H 8488 1150 50  0001 C CNN
F 3 "" H 8450 1300 50  0000 C CNN
	1    8450 1300
	1    0    0    -1  
$EndComp
Wire Wire Line
	6550 2000 6600 2000
Wire Wire Line
	6900 2000 6950 2000
Wire Wire Line
	5800 1550 7250 1550
Wire Wire Line
	5800 1650 7250 1650
NoConn ~ 8250 1850
NoConn ~ 8250 1450
Text Notes 8950 3150 0    50   ~ 0
LDO (5V -> 3.3V)\n
Wire Wire Line
	2200 4050 2200 4150
Wire Wire Line
	2200 4150 2100 4150
Connection ~ 2100 4150
Wire Wire Line
	2300 950  2200 950 
Connection ~ 2200 950 
Text Notes 6050 850  0    50   ~ 0
USB <-> UART converter\n
Text Label 9750 3250 3    50   ~ 0
LDO_OUT
Wire Wire Line
	9750 3250 9750 3600
Connection ~ 9750 3600
$Comp
L Device:Battery_Cell BT2
U 1 1 5B62C41E
P 7900 3900
F 0 "BT2" H 7700 4050 50  0000 L CNN
F 1 "CR2032" H 7800 3850 50  0000 L CNN
F 2 "FuguMisc:BatteryHolder_CR2032" V 7900 3960 50  0001 C CNN
F 3 "~" V 7900 3960 50  0001 C CNN
	1    7900 3900
	1    0    0    -1  
$EndComp
Text Label 8600 3600 0    50   ~ 0
+5V
$Comp
L Device:C C2
U 1 1 5B64CD59
P 8150 3850
F 0 "C2" H 8000 3950 50  0000 L CNN
F 1 "100nF" H 8200 3750 50  0000 L CNN
F 2 "Capacitor_SMD:C_0603_1608Metric_Pad1.05x0.95mm_HandSolder" H 8188 3700 50  0001 C CNN
F 3 "" H 8150 3850 50  0000 C CNN
	1    8150 3850
	1    0    0    -1  
$EndComp
$Comp
L power:GND #PWR022
U 1 1 5B65CB00
P 8150 4150
F 0 "#PWR022" H 8150 3900 50  0001 C CNN
F 1 "GND" H 8155 3977 50  0000 C CNN
F 2 "" H 8150 4150 50  0001 C CNN
F 3 "" H 8150 4150 50  0001 C CNN
	1    8150 4150
	1    0    0    -1  
$EndComp
Wire Wire Line
	8150 3700 7900 3700
Connection ~ 7900 3700
Wire Wire Line
	7900 4000 7900 4050
Wire Wire Line
	8150 4000 8150 4050
Text Label 7700 3700 0    50   ~ 0
Vbat
Text Label 1900 900  3    50   ~ 0
Vbat
Wire Wire Line
	1900 900  1900 1050
Text Label 3000 3250 2    50   ~ 0
RXD
Text Label 3000 3350 2    50   ~ 0
TXD
Text Notes 3200 3250 0    50   ~ 0
PA9 TX -> \nCH340G RX\n
Text Notes 3200 3450 0    50   ~ 0
PA10 RX -> \nCH340G TX\n
$Comp
L power:GND #PWR014
U 1 1 5B77550E
P 5900 1350
F 0 "#PWR014" H 5900 1100 50  0001 C CNN
F 1 "GND" V 5900 1150 50  0000 C CNN
F 2 "" H 5900 1350 50  0001 C CNN
F 3 "" H 5900 1350 50  0001 C CNN
	1    5900 1350
	1    0    0    -1  
$EndComp
Wire Wire Line
	2700 3650 3000 3650
Text Label 3000 3650 2    50   ~ 0
SWDIO
Wire Wire Line
	2700 3750 3000 3750
Text Label 3000 3750 2    50   ~ 0
SWCLK
$Comp
L Device:C C16
U 1 1 5B7AA2EF
P 10850 4900
F 0 "C16" H 10900 5000 50  0000 L CNN
F 1 "100nF" H 10900 4800 50  0000 L CNN
F 2 "Capacitor_SMD:C_0603_1608Metric_Pad1.05x0.95mm_HandSolder" H 10888 4750 50  0001 C CNN
F 3 "~" H 10850 4900 50  0001 C CNN
	1    10850 4900
	1    0    0    -1  
$EndComp
$Comp
L Connector_Generic:Conn_01x04 J5
U 1 1 5B7AAD0C
P 10150 4850
F 0 "J5" H 10150 5050 50  0000 C CNN
F 1 "SWD" H 10150 4550 50  0000 C CNN
F 2 "Connector_PinHeader_2.54mm:PinHeader_1x04_P2.54mm_Vertical" H 10150 4850 50  0001 C CNN
F 3 "~" H 10150 4850 50  0001 C CNN
	1    10150 4850
	-1   0    0    -1  
$EndComp
Wire Wire Line
	10850 5050 10350 5050
Wire Wire Line
	10350 4750 10850 4750
Text Label 10700 4750 2    50   ~ 0
SWD_Vcc
Wire Wire Line
	10350 4850 10700 4850
Wire Wire Line
	10350 4950 10700 4950
Text Label 10700 5050 2    50   ~ 0
SWD_GND
Text Label 10700 4850 2    50   ~ 0
SWDIO
Text Label 10700 4950 2    50   ~ 0
SWCLK
Text Notes 10450 4550 0    50   ~ 0
SWD
$Comp
L Device:C C11
U 1 1 5B7F87ED
P 9950 6000
F 0 "C11" H 9975 6100 50  0000 L CNN
F 1 "100nF" H 9975 5900 50  0000 L CNN
F 2 "Capacitor_SMD:C_0603_1608Metric_Pad1.05x0.95mm_HandSolder" H 9988 5850 50  0001 C CNN
F 3 "" H 9950 6000 50  0000 C CNN
	1    9950 6000
	1    0    0    -1  
$EndComp
$Comp
L Switch:SW_Push SW3
U 1 1 5B7F89AB
P 10250 6000
F 0 "SW3" V 10204 6148 50  0000 L CNN
F 1 "RST" V 10295 6148 50  0000 L CNN
F 2 "FuguSwitches:Tactile_Switch_5x5mm" H 10250 6200 50  0001 C CNN
F 3 "" H 10250 6200 50  0001 C CNN
	1    10250 6000
	0    1    1    0   
$EndComp
$Comp
L Device:R_US R11
U 1 1 5B7F8D09
P 10400 5800
F 0 "R11" V 10200 5750 50  0000 L CNN
F 1 "100K" V 10300 5700 50  0000 L CNN
F 2 "Resistor_SMD:R_0603_1608Metric_Pad1.05x0.95mm_HandSolder" V 10440 5790 50  0001 C CNN
F 3 "~" H 10400 5800 50  0001 C CNN
	1    10400 5800
	0    1    1    0   
$EndComp
$Comp
L power:+3.3V #PWR037
U 1 1 5B7F955A
P 10650 5700
F 0 "#PWR037" H 10650 5550 50  0001 C CNN
F 1 "+3.3V" H 10665 5873 50  0000 C CNN
F 2 "" H 10650 5700 50  0001 C CNN
F 3 "" H 10650 5700 50  0001 C CNN
	1    10650 5700
	1    0    0    -1  
$EndComp
$Comp
L power:GND #PWR033
U 1 1 5B7F95B3
P 10250 6200
F 0 "#PWR033" H 10250 5950 50  0001 C CNN
F 1 "GND" H 10255 6027 50  0000 C CNN
F 2 "" H 10250 6200 50  0001 C CNN
F 3 "" H 10250 6200 50  0001 C CNN
	1    10250 6200
	1    0    0    -1  
$EndComp
Wire Wire Line
	10250 5800 9950 5800
Wire Wire Line
	9950 5800 9950 5850
Wire Wire Line
	10250 6200 9950 6200
Wire Wire Line
	9950 6200 9950 6150
Connection ~ 10250 6200
Connection ~ 10250 5800
Wire Wire Line
	10550 5800 10650 5800
Wire Wire Line
	10650 5800 10650 5700
Text Notes 10400 5400 0    50   ~ 0
Reset
$Comp
L Connector_Generic:Conn_02x03_Odd_Even J4
U 1 1 5B85E777
P 9100 5000
F 0 "J4" H 9150 5317 50  0000 C CNN
F 1 "BOOT" H 9150 5226 50  0000 C CNN
F 2 "Connector_PinHeader_2.54mm:PinHeader_2x03_P2.54mm_Vertical" H 9100 5000 50  0001 C CNN
F 3 "~" H 9100 5000 50  0001 C CNN
	1    9100 5000
	1    0    0    -1  
$EndComp
$Comp
L Device:R_US R9
U 1 1 5B85F5C6
P 8750 5000
F 0 "R9" V 8650 4950 50  0000 L CNN
F 1 "100K" V 8850 4900 50  0000 L CNN
F 2 "Resistor_SMD:R_0603_1608Metric_Pad1.05x0.95mm_HandSolder" V 8790 4990 50  0001 C CNN
F 3 "~" H 8750 5000 50  0001 C CNN
	1    8750 5000
	0    1    1    0   
$EndComp
$Comp
L Device:R_US R10
U 1 1 5B86D527
P 9550 5000
F 0 "R10" V 9450 4950 50  0000 L CNN
F 1 "100K" V 9650 4900 50  0000 L CNN
F 2 "Resistor_SMD:R_0603_1608Metric_Pad1.05x0.95mm_HandSolder" V 9590 4990 50  0001 C CNN
F 3 "~" H 9550 5000 50  0001 C CNN
	1    9550 5000
	0    1    1    0   
$EndComp
$Comp
L power:GND #PWR032
U 1 1 5B899300
P 9400 5150
F 0 "#PWR032" H 9400 4900 50  0001 C CNN
F 1 "GND" H 9405 4977 50  0000 C CNN
F 2 "" H 9400 5150 50  0001 C CNN
F 3 "" H 9400 5150 50  0001 C CNN
	1    9400 5150
	1    0    0    -1  
$EndComp
$Comp
L power:GND #PWR026
U 1 1 5B89935D
P 8900 5150
F 0 "#PWR026" H 8900 4900 50  0001 C CNN
F 1 "GND" H 8905 4977 50  0000 C CNN
F 2 "" H 8900 5150 50  0001 C CNN
F 3 "" H 8900 5150 50  0001 C CNN
	1    8900 5150
	1    0    0    -1  
$EndComp
Wire Wire Line
	8900 5100 8900 5150
Wire Wire Line
	9400 5100 9400 5150
$Comp
L power:+3.3V #PWR031
U 1 1 5B8B4C96
P 9400 4850
F 0 "#PWR031" H 9400 4700 50  0001 C CNN
F 1 "+3.3V" H 9415 5023 50  0000 C CNN
F 2 "" H 9400 4850 50  0001 C CNN
F 3 "" H 9400 4850 50  0001 C CNN
	1    9400 4850
	1    0    0    -1  
$EndComp
$Comp
L power:+3.3V #PWR025
U 1 1 5B8B4CF3
P 8900 4850
F 0 "#PWR025" H 8900 4700 50  0001 C CNN
F 1 "+3.3V" H 8915 5023 50  0000 C CNN
F 2 "" H 8900 4850 50  0001 C CNN
F 3 "" H 8900 4850 50  0001 C CNN
	1    8900 4850
	1    0    0    -1  
$EndComp
Wire Wire Line
	8900 4850 8900 4900
Wire Wire Line
	9400 4900 9400 4850
Text Label 9900 5000 2    50   ~ 0
BOOT1
Wire Wire Line
	9700 5000 9900 5000
Text Label 8400 5000 0    50   ~ 0
BOOT0
Wire Wire Line
	8600 5000 8400 5000
Text Notes 8950 4550 0    50   ~ 0
Boot control\n
Wire Wire Line
	1400 2550 950  2550
Text Label 950  2550 0    50   ~ 0
BOOT1
Text Label 950  1450 0    50   ~ 0
BOOT0
Wire Wire Line
	1400 1450 950  1450
Text Label 950  1250 0    50   ~ 0
NRST
Wire Wire Line
	1400 1250 950  1250
Text Label 10250 5500 3    50   ~ 0
NRST
Wire Wire Line
	10250 5800 10250 5500
$Comp
L MCU_ST_STM32F1:STM32F103C8Tx U1
U 1 1 5B3BA68E
P 2100 2550
F 0 "U1" H 2400 1050 50  0000 C CNN
F 1 "STM32F103C8Tx" H 2600 900 50  0000 C CNN
F 2 "Package_QFP:LQFP-48_7x7mm_P0.5mm" H 1500 1150 50  0001 R CNN
F 3 "http://www.st.com/st-web-ui/static/active/en/resource/technical/document/datasheet/CD00161566.pdf" H 2100 2550 50  0001 C CNN
	1    2100 2550
	1    0    0    -1  
$EndComp
Wire Wire Line
	2700 2350 3000 2350
Wire Wire Line
	2700 2450 3000 2450
Wire Wire Line
	2700 2550 3000 2550
Wire Wire Line
	3000 2750 2700 2750
Wire Wire Line
	2700 2850 3000 2850
Wire Wire Line
	3000 2950 2700 2950
Wire Wire Line
	2700 3050 3000 3050
Wire Wire Line
	2700 3150 3000 3150
Wire Wire Line
	2700 3250 3000 3250
Wire Wire Line
	2700 3350 3000 3350
Wire Wire Line
	2700 3450 3000 3450
Wire Wire Line
	2700 3850 3000 3850
Wire Wire Line
	2700 3550 3000 3550
Text Label 3000 2350 2    50   ~ 0
PA0
Text Label 3000 2450 2    50   ~ 0
PA1
Text Label 3000 2550 2    50   ~ 0
PA2
Text Label 3000 2650 2    50   ~ 0
PA3
Text Label 3000 2750 2    50   ~ 0
PA4
Text Label 3000 2850 2    50   ~ 0
PA5
Text Label 3000 2950 2    50   ~ 0
PA6
Text Label 3000 3050 2    50   ~ 0
PA7
Text Label 3000 3150 2    50   ~ 0
PA8
Text Label 3000 3450 2    50   ~ 0
PA11
Text Label 3000 3550 2    50   ~ 0
PA12
Text Label 3000 3850 2    50   ~ 0
PA15
Text Label 5425 5700 0    50   ~ 0
PA0
Text Label 5425 5800 0    50   ~ 0
PA1
Text Label 5425 5900 0    50   ~ 0
PA2
Text Label 5425 6000 0    50   ~ 0
PA3
Text Label 5425 6100 0    50   ~ 0
PA4
Text Label 5425 6200 0    50   ~ 0
PA5
Text Label 5425 6300 0    50   ~ 0
PA6
Text Label 5425 6400 0    50   ~ 0
PA7
Text Label 5425 6500 0    50   ~ 0
PA8
Text Label 5425 6800 0    50   ~ 0
PA11
Text Label 5425 6900 0    50   ~ 0
PA12
Text Label 5425 7000 0    50   ~ 0
PA15
Text Label 5425 6600 0    50   ~ 0
RXD
Text Label 5425 6700 0    50   ~ 0
TXD
$Comp
L power:PWR_FLAG #FLG02
U 1 1 5B670C01
P 7600 3700
F 0 "#FLG02" H 7600 3775 50  0001 C CNN
F 1 "PWR_FLAG" V 7700 3850 50  0000 L CNN
F 2 "" H 7600 3700 50  0001 C CNN
F 3 "~" H 7600 3700 50  0001 C CNN
	1    7600 3700
	0    -1   -1   0   
$EndComp
Wire Wire Line
	950  2350 1400 2350
Wire Wire Line
	1400 2450 950  2450
Wire Wire Line
	1400 2750 950  2750
Wire Wire Line
	1400 2850 950  2850
Wire Wire Line
	1400 2950 950  2950
Wire Wire Line
	950  3050 1400 3050
Wire Wire Line
	1400 3150 950  3150
Wire Wire Line
	950  3250 1400 3250
Wire Wire Line
	1400 3350 950  3350
Wire Wire Line
	950  3450 1400 3450
Wire Wire Line
	1400 3550 950  3550
Wire Wire Line
	950  3650 1400 3650
Wire Wire Line
	950  3750 1400 3750
Wire Wire Line
	1400 3850 950  3850
Text Label 950  2350 0    50   ~ 0
PB0
Text Label 950  2450 0    50   ~ 0
PB1
Text Label 950  2650 0    50   ~ 0
PB3
Text Label 950  2750 0    50   ~ 0
PB4
Text Label 950  2850 0    50   ~ 0
PB5
Text Label 950  2950 0    50   ~ 0
PB6
Text Label 950  3050 0    50   ~ 0
PB7
Text Label 950  3150 0    50   ~ 0
PB8
Text Label 950  3250 0    50   ~ 0
PB9
Text Label 950  3350 0    50   ~ 0
PB10
Text Label 950  3450 0    50   ~ 0
PB11
Text Label 950  3550 0    50   ~ 0
PB12
Text Label 950  3650 0    50   ~ 0
PB13
Text Label 950  3750 0    50   ~ 0
PB14
Text Label 950  3850 0    50   ~ 0
PB15
Wire Wire Line
	2700 2650 3000 2650
Wire Wire Line
	950  2650 1400 2650
Wire Wire Line
	5425 5700 5625 5700
Wire Wire Line
	5425 5800 5625 5800
Wire Wire Line
	5425 5900 5625 5900
Wire Wire Line
	5425 6000 5625 6000
Wire Wire Line
	5425 6100 5625 6100
Wire Wire Line
	5425 6200 5625 6200
Wire Wire Line
	5425 6300 5625 6300
Wire Wire Line
	5425 6400 5625 6400
Wire Wire Line
	5425 6500 5625 6500
Wire Wire Line
	5425 6600 5625 6600
Wire Wire Line
	5425 6700 5625 6700
Wire Wire Line
	5425 6800 5625 6800
Wire Wire Line
	5425 6900 5625 6900
Wire Wire Line
	5425 7000 5625 7000
Text Label 950  1950 0    50   ~ 0
PC13
Wire Wire Line
	1400 1950 950  1950
Text Label 6525 5700 2    50   ~ 0
PB0
Wire Wire Line
	6325 5700 6525 5700
Wire Wire Line
	6325 5800 6525 5800
Wire Wire Line
	6325 5900 6525 5900
Wire Wire Line
	6325 6000 6525 6000
Wire Wire Line
	6325 6100 6525 6100
Wire Wire Line
	6325 6200 6525 6200
Wire Wire Line
	6325 6300 6525 6300
Wire Wire Line
	6325 6400 6525 6400
Wire Wire Line
	6325 6500 6525 6500
Wire Wire Line
	6325 6600 6525 6600
Wire Wire Line
	6325 6700 6525 6700
Wire Wire Line
	6325 6800 6525 6800
Wire Wire Line
	6325 6900 6525 6900
Wire Wire Line
	6325 7000 6525 7000
Wire Wire Line
	6325 7100 6525 7100
Wire Wire Line
	6325 7200 6425 7200
Wire Wire Line
	6325 7300 6425 7300
Wire Wire Line
	6325 7400 6425 7400
Text Label 6525 5800 2    50   ~ 0
PB1
Text Label 6525 5900 2    50   ~ 0
PB3
Text Label 6525 6000 2    50   ~ 0
PB4
Text Label 6525 6100 2    50   ~ 0
PB5
Text Label 6525 6200 2    50   ~ 0
PB6
Text Label 6525 6300 2    50   ~ 0
PB7
Text Label 6525 6400 2    50   ~ 0
PB8
Text Label 6525 6500 2    50   ~ 0
PB9
Text Label 6525 6600 2    50   ~ 0
PB10
Text Label 6525 6700 2    50   ~ 0
PB11
Text Label 6525 6800 2    50   ~ 0
PB12
Text Label 6525 6900 2    50   ~ 0
PB13
Text Label 6525 7000 2    50   ~ 0
PB14
Text Label 6525 7100 2    50   ~ 0
PB15
Text Label 5425 7100 0    50   ~ 0
PC13
Wire Wire Line
	5625 7100 5425 7100
Wire Wire Line
	5625 7200 5525 7200
Wire Wire Line
	5625 7300 5525 7300
Wire Wire Line
	5625 7400 5525 7400
$Comp
L power:+3.3V #PWR015
U 1 1 5B7672C5
P 6425 7200
F 0 "#PWR015" H 6425 7050 50  0001 C CNN
F 1 "+3.3V" V 6425 7450 50  0000 C CNN
F 2 "" H 6425 7200 50  0001 C CNN
F 3 "" H 6425 7200 50  0001 C CNN
	1    6425 7200
	0    1    1    0   
$EndComp
$Comp
L power:+3.3V #PWR016
U 1 1 5B76734E
P 6425 7300
F 0 "#PWR016" H 6425 7150 50  0001 C CNN
F 1 "+3.3V" V 6425 7550 50  0000 C CNN
F 2 "" H 6425 7300 50  0001 C CNN
F 3 "" H 6425 7300 50  0001 C CNN
	1    6425 7300
	0    1    1    0   
$EndComp
$Comp
L power:+3.3V #PWR017
U 1 1 5B7673AD
P 6425 7400
F 0 "#PWR017" H 6425 7250 50  0001 C CNN
F 1 "+3.3V" V 6425 7650 50  0000 C CNN
F 2 "" H 6425 7400 50  0001 C CNN
F 3 "" H 6425 7400 50  0001 C CNN
	1    6425 7400
	0    1    1    0   
$EndComp
$Comp
L power:GND #PWR010
U 1 1 5B767CFF
P 5525 7200
F 0 "#PWR010" H 5525 6950 50  0001 C CNN
F 1 "GND" V 5525 7000 50  0000 C CNN
F 2 "" H 5525 7200 50  0001 C CNN
F 3 "" H 5525 7200 50  0001 C CNN
	1    5525 7200
	0    1    1    0   
$EndComp
$Comp
L power:GND #PWR011
U 1 1 5B767D88
P 5525 7300
F 0 "#PWR011" H 5525 7050 50  0001 C CNN
F 1 "GND" V 5525 7100 50  0000 C CNN
F 2 "" H 5525 7300 50  0001 C CNN
F 3 "" H 5525 7300 50  0001 C CNN
	1    5525 7300
	0    1    1    0   
$EndComp
$Comp
L power:GND #PWR012
U 1 1 5B767DEC
P 5525 7400
F 0 "#PWR012" H 5525 7150 50  0001 C CNN
F 1 "GND" V 5525 7200 50  0000 C CNN
F 2 "" H 5525 7400 50  0001 C CNN
F 3 "" H 5525 7400 50  0001 C CNN
	1    5525 7400
	0    1    1    0   
$EndComp
Text Notes 5625 5350 0    50   ~ 0
External connectors\n
$Comp
L power:+5V #PWR013
U 1 1 5B8A05B9
P 5800 1750
F 0 "#PWR013" H 5800 1600 50  0001 C CNN
F 1 "+5V" V 5800 1850 50  0000 L CNN
F 2 "" H 5800 1750 50  0001 C CNN
F 3 "" H 5800 1750 50  0001 C CNN
	1    5800 1750
	0    1    1    0   
$EndComp
Wire Wire Line
	8850 3600 8600 3600
Connection ~ 8850 3600
Wire Wire Line
	8450 1150 8450 1050
$Comp
L power:GND #PWR024
U 1 1 5BA51079
P 8450 1450
F 0 "#PWR024" H 8450 1200 50  0001 C CNN
F 1 "GND" H 8455 1277 50  0000 C CNN
F 2 "" H 8450 1450 50  0001 C CNN
F 3 "" H 8450 1450 50  0001 C CNN
	1    8450 1450
	1    0    0    -1  
$EndComp
Wire Wire Line
	8450 1150 8250 1150
Connection ~ 8450 1150
$Comp
L power:+3.3V #PWR023
U 1 1 5BAAC0BB
P 8450 1050
F 0 "#PWR023" H 8450 900 50  0001 C CNN
F 1 "+3.3V" H 8465 1223 50  0000 C CNN
F 2 "" H 8450 1050 50  0001 C CNN
F 3 "" H 8450 1050 50  0001 C CNN
	1    8450 1050
	1    0    0    -1  
$EndComp
Wire Wire Line
	9000 6000 9000 5950
Wire Wire Line
	8900 6000 9000 6000
Wire Wire Line
	9000 6100 8900 6100
Wire Wire Line
	9000 6150 9000 6100
$Comp
L power:PWR_FLAG #FLG04
U 1 1 5B8E34F8
P 8900 6100
F 0 "#FLG04" H 8900 6175 50  0001 C CNN
F 1 "PWR_FLAG" V 8900 6250 50  0000 L CNN
F 2 "" H 8900 6100 50  0001 C CNN
F 3 "~" H 8900 6100 50  0001 C CNN
	1    8900 6100
	0    -1   -1   0   
$EndComp
$Comp
L power:GND #PWR028
U 1 1 5B8E33F1
P 9000 6150
F 0 "#PWR028" H 9000 5900 50  0001 C CNN
F 1 "GND" H 9005 5977 50  0000 C CNN
F 2 "" H 9000 6150 50  0001 C CNN
F 3 "" H 9000 6150 50  0001 C CNN
	1    9000 6150
	1    0    0    -1  
$EndComp
$Comp
L power:PWR_FLAG #FLG03
U 1 1 5B8B4CED
P 8900 6000
F 0 "#FLG03" H 8900 6075 50  0001 C CNN
F 1 "PWR_FLAG" V 8900 6150 50  0000 L CNN
F 2 "" H 8900 6000 50  0001 C CNN
F 3 "~" H 8900 6000 50  0001 C CNN
	1    8900 6000
	0    -1   -1   0   
$EndComp
$Comp
L power:+5V #PWR027
U 1 1 5B8B46D6
P 9000 5950
F 0 "#PWR027" H 9000 5800 50  0001 C CNN
F 1 "+5V" H 8950 6150 50  0000 L CNN
F 2 "" H 9000 5950 50  0001 C CNN
F 3 "" H 9000 5950 50  0001 C CNN
	1    9000 5950
	1    0    0    -1  
$EndComp
Wire Wire Line
	10200 900  10200 1350
Wire Wire Line
	10800 900  10800 1350
Wire Wire Line
	5300 1100 5150 1100
Wire Wire Line
	5150 1100 5150 1300
$Comp
L power:GND #PWR09
U 1 1 5B44FC86
P 5150 1300
F 0 "#PWR09" H 5150 1050 50  0001 C CNN
F 1 "GND" V 5150 1100 50  0000 C CNN
F 2 "" H 5150 1300 50  0001 C CNN
F 3 "" H 5150 1300 50  0001 C CNN
	1    5150 1300
	1    0    0    -1  
$EndComp
Wire Wire Line
	5800 1350 5900 1350
Text Notes 7700 3150 0    50   ~ 0
Battery
$Comp
L Device:Battery_Cell BT1
U 1 1 5B638E41
P 7600 3900
F 0 "BT1" H 7350 4050 50  0000 L CNN
F 1 "CR2032" H 7500 3850 50  0000 L CNN
F 2 "FuguMisc:BatteryHolder_CR2032" V 7600 3960 50  0001 C CNN
F 3 "~" V 7600 3960 50  0001 C CNN
	1    7600 3900
	1    0    0    -1  
$EndComp
Wire Wire Line
	7600 3700 7900 3700
Connection ~ 7600 3700
Wire Wire Line
	7600 4000 7600 4050
Wire Wire Line
	7600 4050 7900 4050
Wire Wire Line
	8150 4050 7900 4050
Connection ~ 8150 4050
Wire Wire Line
	8150 4050 8150 4150
Connection ~ 7900 4050
$Comp
L Connector:Conn_01x18_Male J3
U 1 1 5B67DDFC
P 6125 6500
F 0 "J3" H 6231 7478 50  0000 C CNN
F 1 "Conn_01x18_Male" H 6375 5500 50  0000 C CNN
F 2 "Connector_PinHeader_2.54mm:PinHeader_1x18_P2.54mm_Vertical" H 6125 6500 50  0001 C CNN
F 3 "~" H 6125 6500 50  0001 C CNN
	1    6125 6500
	1    0    0    -1  
$EndComp
$Comp
L Connector:Conn_01x18_Male J2
U 1 1 5B699BEA
P 5825 6500
F 0 "J2" H 6075 7450 50  0000 R CNN
F 1 "Conn_01x18_Male" H 6325 5500 50  0000 R CNN
F 2 "Connector_PinHeader_2.54mm:PinHeader_1x18_P2.54mm_Vertical" H 5825 6500 50  0001 C CNN
F 3 "~" H 5825 6500 50  0001 C CNN
	1    5825 6500
	-1   0    0    -1  
$EndComp
$Comp
L Switch:SW_Push SW1
U 1 1 5B6EAA78
P 2250 6600
F 0 "SW1" H 2200 6800 50  0000 L CNN
F 1 "PB1" H 2200 6500 50  0000 L CNN
F 2 "FuguSwitches:Tactile_Switch_5x5mm" H 2250 6800 50  0001 C CNN
F 3 "" H 2250 6800 50  0001 C CNN
	1    2250 6600
	1    0    0    -1  
$EndComp
$Comp
L Switch:SW_Push SW2
U 1 1 5B6EB0B9
P 2250 7050
F 0 "SW2" H 2200 7250 50  0000 L CNN
F 1 "PB2" H 2200 6950 50  0000 L CNN
F 2 "FuguSwitches:Tactile_Switch_5x5mm" H 2250 7250 50  0001 C CNN
F 3 "" H 2250 7250 50  0001 C CNN
	1    2250 7050
	1    0    0    -1  
$EndComp
$Comp
L Device:R R3
U 1 1 5B6F9C93
P 2600 6600
F 0 "R3" V 2807 6600 50  0000 C CNN
F 1 "0R" V 2716 6600 50  0000 C CNN
F 2 "Resistor_SMD:R_0603_1608Metric_Pad1.05x0.95mm_HandSolder" V 2530 6600 50  0001 C CNN
F 3 "~" H 2600 6600 50  0001 C CNN
	1    2600 6600
	0    -1   -1   0   
$EndComp
$Comp
L Device:R R4
U 1 1 5B6F9DC4
P 2600 7050
F 0 "R4" V 2807 7050 50  0000 C CNN
F 1 "0R" V 2716 7050 50  0000 C CNN
F 2 "Resistor_SMD:R_0603_1608Metric_Pad1.05x0.95mm_HandSolder" V 2530 7050 50  0001 C CNN
F 3 "~" H 2600 7050 50  0001 C CNN
	1    2600 7050
	0    -1   -1   0   
$EndComp
$Comp
L power:GND #PWR05
U 1 1 5B6F9FC7
P 2850 7300
F 0 "#PWR05" H 2850 7050 50  0001 C CNN
F 1 "GND" H 2855 7127 50  0000 C CNN
F 2 "" H 2850 7300 50  0001 C CNN
F 3 "" H 2850 7300 50  0001 C CNN
	1    2850 7300
	1    0    0    -1  
$EndComp
Wire Wire Line
	2750 6600 2850 6600
Wire Wire Line
	2850 6600 2850 7050
Wire Wire Line
	2750 7050 2850 7050
Connection ~ 2850 7050
Text Notes 2100 6200 0    50   ~ 0
User buttons
$Comp
L Device:LED D2
U 1 1 5B750FC0
P 1150 7050
F 0 "D2" H 1142 6795 50  0000 C CNN
F 1 "LED" H 1142 6886 50  0000 C CNN
F 2 "LED_SMD:LED_0603_1608Metric_Pad1.05x0.95mm_HandSolder" H 1150 7050 50  0001 C CNN
F 3 "~" H 1150 7050 50  0001 C CNN
	1    1150 7050
	-1   0    0    1   
$EndComp
$Comp
L Device:R R2
U 1 1 5B752106
P 1450 7050
F 0 "R2" V 1243 7050 50  0000 C CNN
F 1 "62R" V 1334 7050 50  0000 C CNN
F 2 "Resistor_SMD:R_0603_1608Metric_Pad1.05x0.95mm_HandSolder" V 1380 7050 50  0001 C CNN
F 3 "~" H 1450 7050 50  0001 C CNN
	1    1450 7050
	0    1    1    0   
$EndComp
$Comp
L Device:LED D1
U 1 1 5B761721
P 1150 6600
F 0 "D1" H 1142 6345 50  0000 C CNN
F 1 "LED" H 1142 6436 50  0000 C CNN
F 2 "LED_SMD:LED_0603_1608Metric_Pad1.05x0.95mm_HandSolder" H 1150 6600 50  0001 C CNN
F 3 "~" H 1150 6600 50  0001 C CNN
	1    1150 6600
	-1   0    0    1   
$EndComp
$Comp
L Device:R R1
U 1 1 5B7617B9
P 1450 6600
F 0 "R1" V 1243 6600 50  0000 C CNN
F 1 "62R" V 1334 6600 50  0000 C CNN
F 2 "Resistor_SMD:R_0603_1608Metric_Pad1.05x0.95mm_HandSolder" V 1380 6600 50  0001 C CNN
F 3 "~" H 1450 6600 50  0001 C CNN
	1    1450 6600
	0    1    1    0   
$EndComp
$Comp
L power:GND #PWR02
U 1 1 5B7AA242
P 1750 7300
F 0 "#PWR02" H 1750 7050 50  0001 C CNN
F 1 "GND" H 1755 7127 50  0000 C CNN
F 2 "" H 1750 7300 50  0001 C CNN
F 3 "" H 1750 7300 50  0001 C CNN
	1    1750 7300
	1    0    0    -1  
$EndComp
Wire Wire Line
	1600 6600 1750 6600
Text Notes 1100 6200 0    50   ~ 0
User LEDs
Text Label 850  6600 0    50   ~ 0
PA0
Wire Wire Line
	1000 6600 850  6600
Text Label 850  7050 0    50   ~ 0
PA1
Wire Wire Line
	1000 7050 850  7050
Wire Wire Line
	2850 7050 2850 7300
Text Label 1950 6600 0    50   ~ 0
PB0
Wire Wire Line
	2050 6600 1950 6600
Wire Wire Line
	1750 6600 1750 7050
Wire Wire Line
	1750 7050 1600 7050
Connection ~ 1750 7050
Wire Wire Line
	1750 7050 1750 7300
Text Label 1950 7050 0    50   ~ 0
PB1
Wire Wire Line
	2050 7050 1950 7050
$Comp
L Fugu:LM096I-128064 U2
U 1 1 5BA0B399
P 3750 6600
F 0 "U2" H 3750 6915 50  0000 C CNN
F 1 "LM096I-128064" H 3750 6824 50  0000 C CNN
F 2 "FuguDisplay:OLED_128x64_4Pins" H 3750 6850 50  0001 C CNN
F 3 "" H 3750 6850 50  0001 C CNN
	1    3750 6600
	1    0    0    -1  
$EndComp
Text Notes 3400 6200 0    50   ~ 0
I2C OLED Display
$Comp
L power:+3.3V #PWR06
U 1 1 5BA0BC9E
P 3300 6550
F 0 "#PWR06" H 3300 6400 50  0001 C CNN
F 1 "+3.3V" H 3315 6723 50  0000 C CNN
F 2 "" H 3300 6550 50  0001 C CNN
F 3 "" H 3300 6550 50  0001 C CNN
	1    3300 6550
	1    0    0    -1  
$EndComp
$Comp
L power:GND #PWR07
U 1 1 5BA0BD05
P 3300 6700
F 0 "#PWR07" H 3300 6450 50  0001 C CNN
F 1 "GND" H 3305 6527 50  0000 C CNN
F 2 "" H 3300 6700 50  0001 C CNN
F 3 "" H 3300 6700 50  0001 C CNN
	1    3300 6700
	1    0    0    -1  
$EndComp
$Comp
L Device:R R5
U 1 1 5BA0CCE2
P 4200 6250
F 0 "R5" H 4270 6296 50  0000 L CNN
F 1 "4K7" H 4270 6205 50  0000 L CNN
F 2 "Resistor_SMD:R_0603_1608Metric_Pad1.05x0.95mm_HandSolder" V 4130 6250 50  0001 C CNN
F 3 "~" H 4200 6250 50  0001 C CNN
	1    4200 6250
	1    0    0    -1  
$EndComp
$Comp
L Device:R R6
U 1 1 5BA0CEAA
P 4475 6250
F 0 "R6" H 4545 6296 50  0000 L CNN
F 1 "4K7" H 4545 6205 50  0000 L CNN
F 2 "Resistor_SMD:R_0603_1608Metric_Pad1.05x0.95mm_HandSolder" V 4405 6250 50  0001 C CNN
F 3 "~" H 4475 6250 50  0001 C CNN
	1    4475 6250
	1    0    0    -1  
$EndComp
Wire Wire Line
	4200 6650 4475 6650
Wire Wire Line
	4475 6650 4750 6650
Connection ~ 4475 6650
Wire Wire Line
	4475 6400 4475 6650
Wire Wire Line
	4200 6400 4200 6550
Connection ~ 4200 6550
$Comp
L power:+3V3 #PWR08
U 1 1 5BA77F19
P 4200 6000
F 0 "#PWR08" H 4200 5850 50  0001 C CNN
F 1 "+3V3" H 4215 6173 50  0000 C CNN
F 2 "" H 4200 6000 50  0001 C CNN
F 3 "" H 4200 6000 50  0001 C CNN
	1    4200 6000
	1    0    0    -1  
$EndComp
Wire Wire Line
	4475 6100 4200 6100
Wire Wire Line
	4200 6000 4200 6100
Connection ~ 4200 6100
Text Label 4750 6550 2    50   ~ 0
PB6
Text Label 4750 6650 2    50   ~ 0
PB7
Wire Wire Line
	3300 6650 3300 6700
$Comp
L Connector:Conn_01x03_Male J1
U 1 1 5BAD1D59
P 1250 5825
F 0 "J1" V 1300 5600 50  0000 C CNN
F 1 "Conn_01x03_Male" V 1150 5825 50  0000 C CNN
F 2 "Connector_PinHeader_2.54mm:PinHeader_1x03_P2.54mm_Vertical" H 1250 5825 50  0001 C CNN
F 3 "~" H 1250 5825 50  0001 C CNN
	1    1250 5825
	0    -1   -1   0   
$EndComp
Text Notes 800  5025 0    50   ~ 0
USB <-> Battery jumper
Text Label 1675 5625 2    50   ~ 0
LDO_OUT
Text Label 925  5625 0    50   ~ 0
Vbat
$Comp
L power:+3.3V #PWR01
U 1 1 5BB26EDC
P 1250 5500
F 0 "#PWR01" H 1250 5350 50  0001 C CNN
F 1 "+3.3V" H 1265 5673 50  0000 C CNN
F 2 "" H 1250 5500 50  0001 C CNN
F 3 "" H 1250 5500 50  0001 C CNN
	1    1250 5500
	1    0    0    -1  
$EndComp
Wire Wire Line
	1350 5625 1675 5625
Wire Wire Line
	1150 5625 925  5625
$Comp
L Sensor:DHT11 U3
U 1 1 5BD21DEF
P 7500 5975
F 0 "U3" H 7270 6021 50  0000 R CNN
F 1 "DHT11" H 7270 5930 50  0000 R CNN
F 2 "FuguMisc:DHT11_Bent" H 7650 6225 50  0001 C CNN
F 3 "http://akizukidenshi.com/download/ds/aosong/DHT11.pdf" H 7650 6225 50  0001 C CNN
	1    7500 5975
	1    0    0    -1  
$EndComp
$Comp
L Device:R R7
U 1 1 5B613E0A
P 7650 5525
F 0 "R7" V 7443 5525 50  0000 C CNN
F 1 "10K" V 7534 5525 50  0000 C CNN
F 2 "Resistor_SMD:R_0603_1608Metric_Pad1.05x0.95mm_HandSolder" V 7580 5525 50  0001 C CNN
F 3 "~" H 7650 5525 50  0001 C CNN
	1    7650 5525
	0    1    1    0   
$EndComp
$Comp
L power:+3.3V #PWR019
U 1 1 5B613FD8
P 7400 5425
F 0 "#PWR019" H 7400 5275 50  0001 C CNN
F 1 "+3.3V" H 7415 5598 50  0000 C CNN
F 2 "" H 7400 5425 50  0001 C CNN
F 3 "" H 7400 5425 50  0001 C CNN
	1    7400 5425
	1    0    0    -1  
$EndComp
Wire Wire Line
	7400 5425 7400 5525
Wire Wire Line
	7500 5525 7400 5525
Connection ~ 7400 5525
Wire Wire Line
	7400 5525 7400 5675
Wire Wire Line
	7800 5525 7800 5975
Wire Wire Line
	7800 5975 7850 5975
Connection ~ 7800 5975
$Comp
L power:GND #PWR020
U 1 1 5B669B81
P 7400 6275
F 0 "#PWR020" H 7400 6025 50  0001 C CNN
F 1 "GND" H 7405 6102 50  0000 C CNN
F 2 "" H 7400 6275 50  0001 C CNN
F 3 "" H 7400 6275 50  0001 C CNN
	1    7400 6275
	1    0    0    -1  
$EndComp
Text Notes 7400 5100 0    50   ~ 0
Sensor
$Comp
L Device:R R8
U 1 1 5B6A04BF
P 8000 5975
F 0 "R8" V 7793 5975 50  0000 C CNN
F 1 "0R" V 7884 5975 50  0000 C CNN
F 2 "Resistor_SMD:R_0603_1608Metric_Pad1.05x0.95mm_HandSolder" V 7930 5975 50  0001 C CNN
F 3 "~" H 8000 5975 50  0001 C CNN
	1    8000 5975
	0    1    1    0   
$EndComp
Text Label 8300 5975 2    50   ~ 0
PB9
Wire Wire Line
	8150 5975 8300 5975
Wire Wire Line
	4200 6550 4750 6550
Wire Wire Line
	9050 1700 9350 1700
NoConn ~ 9350 1550
NoConn ~ 9350 1150
$Comp
L Device:Crystal_GND23 Y2
U 1 1 5B3DE97E
P 9350 1350
F 0 "Y2" H 9400 1650 50  0000 R CNN
F 1 "32.768kHz" H 9525 1800 50  0000 R CNN
F 2 "Crystal:Crystal_SMD_SeikoEpson_MC306-4Pin_8.0x3.2mm_HandSoldering" H 9350 1350 50  0001 C CNN
F 3 "~" H 9350 1350 50  0001 C CNN
	1    9350 1350
	1    0    0    -1  
$EndComp
$Comp
L Device:C C1
U 1 1 5B834448
P 6800 1300
F 0 "C1" H 6600 1350 50  0000 L CNN
F 1 "4.7pF" H 6550 1200 50  0000 L CNN
F 2 "Capacitor_SMD:C_0603_1608Metric_Pad1.05x0.95mm_HandSolder" H 6838 1150 50  0001 C CNN
F 3 "" H 6800 1300 50  0000 C CNN
	1    6800 1300
	1    0    0    -1  
$EndComp
Text Label 6600 1150 0    60   ~ 0
GND
Connection ~ 6800 1150
Wire Wire Line
	6800 1150 7250 1150
Wire Wire Line
	6800 1450 7250 1450
Wire Wire Line
	6600 1150 6800 1150
$Comp
L power:+3.3V #PWR038
U 1 1 5B8A1186
P 10850 4750
F 0 "#PWR038" H 10850 4600 50  0001 C CNN
F 1 "+3.3V" H 10865 4923 50  0000 C CNN
F 2 "" H 10850 4750 50  0001 C CNN
F 3 "" H 10850 4750 50  0001 C CNN
	1    10850 4750
	1    0    0    -1  
$EndComp
Connection ~ 10850 4750
$Comp
L power:GND #PWR039
U 1 1 5B8A1442
P 10850 5050
F 0 "#PWR039" H 10850 4800 50  0001 C CNN
F 1 "GND" H 10855 4877 50  0000 C CNN
F 2 "" H 10850 5050 50  0001 C CNN
F 3 "" H 10850 5050 50  0001 C CNN
	1    10850 5050
	1    0    0    -1  
$EndComp
Connection ~ 10850 5050
NoConn ~ 5800 1450
$Comp
L power:GND #PWR030
U 1 1 5B85736C
P 9350 1700
F 0 "#PWR030" H 9350 1450 50  0001 C CNN
F 1 "GND" H 9355 1527 50  0000 C CNN
F 2 "" H 9350 1700 50  0001 C CNN
F 3 "" H 9350 1700 50  0001 C CNN
	1    9350 1700
	1    0    0    -1  
$EndComp
Connection ~ 9350 1700
Wire Wire Line
	9350 1700 9650 1700
Wire Wire Line
	6750 2200 6750 2350
Wire Wire Line
	1250 5500 1250 5625
$Comp
L power:PWR_FLAG #FLG0101
U 1 1 5B9A5662
P 1250 5500
F 0 "#FLG0101" H 1250 5575 50  0001 C CNN
F 1 "PWR_FLAG" V 1350 5650 50  0000 L CNN
F 2 "" H 1250 5500 50  0001 C CNN
F 3 "~" H 1250 5500 50  0001 C CNN
	1    1250 5500
	0    -1   -1   0   
$EndComp
Connection ~ 1250 5500
$EndSCHEMATC
